{
  "type": "service_account",
  "project_id": "cashback-fd262",
  "private_key_id": "a09ce32232a095e0b8053f8120d51f9d644b0942",
  "private_key": "-----BEGIN PRIVATE KEY-----\nMIIEvQIBADANBgkqhkiG9w0BAQEFAASCBKcwggSjAgEAAoIBAQCjY0FeedGDInt7\nrNu1Pku+7w5pw3SOYndQaq0ejG2N1n0q7x2dSsCqh0lGt79Clqn/sQVrP/AhgYB9\nt+JYzf8OK7Rt32RaH9WqKPPMEiY3Dv5/OCzrMK6s5rvyKxrwihkIWjvTnL2+Ypr9\nAOlYFY+Ki43WWm/t+YKOOQm/W5iIjAL3WGt3B6yiIQxSwO3c2QRGbzmZOgd1jSqT\n6//LK5Y5CpsTHDlpYUAv3hX6kjLl1IUE3lbn22MsOlB/ZbIPkonNPmtZ99v5utyr\ntAroSxcg7tuX0j9NKudQ7Ao96Pa7tPul7NbmoaeWYmFDxr9dzkRhU9yfJQYEzzrn\nJHThkQF3AgMBAAECggEAC0rwmV4OwWM1vl472p1mpi4Rr0pcw6aXRo3zpI6M1+aA\n74xoCJdtFPGVeqIilwX2KVUL4dYhJmpeqNHNKYQmDSME19ST3rgf5XXqe9VZTNQ9\neio2Iz9Rzg4t5AFfXaFoii+VE6gxY8z0QhO5DRHYbPlToVgjhQLffNhWYyJ/5W1j\npM9BTqcYCDT5HxpH0iAyV7G143iwsHUE1I2PVIB66MG1x8fCi9CjSXDSAcn0cl0A\nI36owS2GAqaOYRA1LdnIEgYmdcJ/kWs6YgpT3tToEuxU+fpWCv/0AjhRIV5iyC9W\ncljbZ/Fp1zOlqTGkG5LUn1Jh+WKq8pbzNAUHuRu7QQKBgQDVIelgidi3Q3NwPRxa\niEpJjmZOJneC4iMXORtjEc/C7iXKWzDkW5mR9RP0AkOu2kK68qxMcHvLX/C5NpJw\nVVbzF806yZqQ7xFdocFnkws7fYLsHDP1sCtQNvHRFaCAeQjYd6yzykr0/hNIsdgH\nuSWZdvEBvOxdPZ8UiFjh7OaMIQKBgQDEQAKoGoFz0UYqk6H2FDjfnIIm5KUocild\n9izMAYDIWkmqouvSi0YB8db+PG4J4GwaLuX5hUeQGhjkHJPU7ieWHe2mH3dPTcvQ\nFj890htHRhvu0ynJlboTIEnyrjKQEzEkHx/rAFXrK7HbRxZ833obISZw8pMkU7ZU\nzz/ciDkalwKBgAfhPBakog2Mgd0ZdU3nkg+MIz4qb+q336JBK0ELbIoBcgY8Pt+C\nf3gE/prb5pK1YRg2VqZw1jLbtjOyz9E1ZoSQUbclswA+xn6Wt2bT6etmJYwDMuyX\nedJ6ZZBcY1W8o9YU/p6bERBjwGTEpn8KmlhFLH3q9TYxTAtfSyH3N0LhAoGAWXCC\nxXIvBUWfINBfw/K7aM2/U1JpIuHEkJodGGym8KiVYjsWFsJ6iXBad0u7Kq0pF1XA\nYdOoJbh/F5cemLBhQj0pjchRa8cc2B0LfXVAEV+WY2XBaanfP9A7Y2qYiKj2gGve\n9A8XGTK0wCbJzOdckvisuFUVUj0En+pERJGg1MkCgYEAiGDCatuSxz74Zd+CbC4H\nd9jbolk9BFZ8SMK4fsod25loH3K2h+ckf3tkv1ekclEdsqU4r/CC2UM6EZAbrMqF\nG9WdUDKVW08b1ai/l91T+8JnBRmB0aq0Zak2k+Z/Oiiaq8ssrca3DmKwZ3ftSd7i\nsCPEvUuDGFLkzK2sJrPDxuQ=\n-----END PRIVATE KEY-----\n",
  "client_email": "firebase-adminsdk-572kv@cashback-fd262.iam.gserviceaccount.com",
  "client_id": "107202563647719740405",
  "auth_uri": "https://accounts.google.com/o/oauth2/auth",
  "token_uri": "https://oauth2.googleapis.com/token",
  "auth_provider_x509_cert_url": "https://www.googleapis.com/oauth2/v1/certs",
  "client_x509_cert_url": "https://www.googleapis.com/robot/v1/metadata/x509/firebase-adminsdk-572kv%40cashback-fd262.iam.gserviceaccount.com"
}
